{
    "urls": [
        {
            "url": "https://yydsys.top/duo",
            "name": "🏡应用多多家庭版"
        },
        {
            "url": "https://yydsys.top/duo/x.json",
            "name": "🚀阿里扫码专线"
        }, 
        {
            "url": "http://饭太硬.ga/tv",
            "name": "🚀饭太硬线路"
        },          
        {
            "url": "http://我不是.肥猫.love:63/接口禁止贩卖",
            "name": "🚀肥猫线路"
        },
        {
            "url": "http://tvbo.run.goorm.site/tangs.json",
            "name": "🚀唐三线路"
        }, 
        {
            "url": "https://ghproxy.com/https://raw.githubusercontent.com/FongMi/CatVodSpider/main/json/config.json",
            "name": "🚀蜂蜜线路"
        },                                                        
        {
            "url": "https://pastebin.com/raw/5NHaxyGR",
            "name": "🚀道长线路"
        },                
        {
            "url": "https://agit.ai/nbwzlyd/xiaopingguo/raw/branch/master/xiaopingguo/xiaopingguo.json",
            "name": "🚀小苹果线路"
        },                     
        {
            "url": "https://tvbox.cainisi.cf",
            "name": "🚀菜妮丝线路"
        },
        {
            "url": "https://framagit.org/lzk23559/TVRule/-/raw/main/XYQTVBox.json",
            "name": "🚀香雅情线路"
        },           
        {
            "url": "https://agit.ai/relax/adcc/raw/branch/master/tvbox.json",
            "name": "🚀巧技线路"
        },
        {
            "url": "http://101.34.67.237/config/1",
            "name": "🚀小雅线路"
        },
        {
            "url": "http://home.jundie.top:81/top98.json",
            "name": "🚀俊佬线路"
        }, 
        {
            "url": "https://gitee.com/lekanbox/ysc/raw/master/ysc.json",
            "name": "🚀运输车线路"
        },        
        {
            "url": "https://jihulab.com/ygbh1/box/-/raw/main/%E6%9C%88%E5%85%89%E5%AE%9D%E7%9B%92",
            "name": "🐹月光宝盒"
        },      
        {
            "url": "https://la.kstore.space/download/2883/0110.txt",
            "name": "🐹蚂蚁论坛线路"
        },
        {
            "url": "https://agit.ai/Yoursmile7/TVBox/raw/branch/master/XC.json",
            "name": "🐹南风线路"
        },
        {
            "url": "http://itvbox.cc/tvbox/云星日记/1.m3u8",
            "name": "🐹云星日记"
        },        
        {
            "url": "http://52bsj.vip:98/wuai",
            "name": "🐹吾爱线路"
        },
        {
            "url": "https://源享家.ml/45127",
            "name": "🐹源享家线路"
        }      
    ]
}
